Homework 3
…
Much more relevant tokens now. Covid and 19 are the two top tokens and appear in almost the same frequency since they are linked, although Covid shows up a bit more. After that, some of the search terms come up most frequently such as preeclampsia, and prostate/cancer. Meningitis and cystic/fibrosis do not appear, even though they are part of the 5 search terms.

pubmed %>%
  unnest_tokens(token3, abstract)%>%
  anti_join(tidytext::stop_words, by=c("token3" = "word"))%>%
  group_by(term)%>%
  count(token3)%>%
  top_n(5, n)

## # A tibble: 25 x 3
## # Groups:   term [5]
##    term            token3       n
##    <chr>           <chr>    <int>
##  1 covid           19        7035
##  2 covid           covid     7275
##  3 covid           disease    943
##  4 covid           pandemic   800
##  5 covid           patients  2293
##  6 cystic fibrosis cf         625
##  7 cystic fibrosis cystic     862
##  8 cystic fibrosis disease    400
##  9 cystic fibrosis fibrosis   867
## 10 cystic fibrosis patients   586
## #  with 15 more rows
…
When the stop words are removed, the most frequent bigrams are "covid 19", "prostate cancer", "pre eclampsia", "cystic fibrosis", and "coronavirus disease". This is very close to the search terms and is only missing meningitis.

TF-IDF Value

pubmed3 <- pubmed %>%
  unnest_tokens(abstract, abstract)%>%
  count(abstract, term) %>%
bind_tf_idf(abstract, term, n) %>%
arrange(desc(tf_idf))

  pubmed3 %>%
    group_by(term)%>%
arrange(desc(tf_idf))

## # A tibble: 39,240 x 6
## # Groups:   term [5]
##    abstract     term                n      tf   idf  tf_idf
##    <chr>        <chr>           <int>   <dbl> <dbl>   <dbl>
##  1 covid        covid            7275 0.0371  1.61  0.0597 
##  2 prostate     prostate cancer  3832 0.0312  1.61  0.0502 
##  3 eclampsia    preeclampsia     2005 0.0143  1.61  0.0230 
##  4 preeclampsia preeclampsia     1863 0.0133  1.61  0.0214 
##  5 meningitis   meningitis        429 0.00919 1.61  0.0148 
##  6 cf           cystic fibrosis   625 0.0127  0.916 0.0117 
##  7 fibrosis     cystic fibrosis   867 0.0176  0.511 0.00901
##  8 cystic       cystic fibrosis   862 0.0175  0.511 0.00896
##  9 meningeal    meningitis        219 0.00469 1.61  0.00755
## 10 pandemic     covid             800 0.00408 1.61  0.00657
## #  with 39,230 more rows
…
